# This file uses centimeters as units for non-parametric coordinates.

v -4.599537 -0.718399 3.624383
v -2.589115 -0.721062 4.395248
v -0.575207 -0.723828 5.134688
v 1.551712 -0.729929 4.853993
v 3.682106 -0.736133 4.541875
v -4.968254 -0.723885 1.487717
v -2.586193 0.525231 2.110181
v -0.289886 0.943430 2.591505
v 2.113892 0.515168 2.630884
v 4.509537 -0.744181 2.537726
v -5.159924 -0.729751 -0.629333
v -2.500532 0.744446 -0.339546
v 0.004728 1.171511 -0.063409
v 2.567450 0.733593 0.221918
v 5.159924 -0.751849 0.513967
v -4.509537 -0.737419 -2.653096
v -2.050049 0.509414 -2.729554
v 0.318171 0.852859 -2.898807
v 2.650036 0.499349 -2.208848
v 4.968254 -0.757714 -1.603084
v -3.682104 -0.745466 -4.657242
v -1.551706 -0.751669 -4.969361
v 0.575209 -0.757771 -5.250056
v 2.589113 -0.760536 -4.510615
v 4.599537 -0.763200 -3.739749
vt 0.508521 0.507777
vt 0.630764 0.507777
vt 0.630764 0.629938
vt 0.508521 0.629938
vt 0.753007 0.507777
vt 0.753007 0.629938
vt 0.875250 0.507777
vt 0.875250 0.629938
vt 0.997493 0.507777
vt 0.997493 0.629938
vt 0.630764 0.752100
vt 0.508521 0.752100
vt 0.753007 0.752100
vt 0.875250 0.752100
vt 0.997493 0.752100
vt 0.630764 0.874262
vt 0.508521 0.874262
vt 0.753007 0.874262
vt 0.875250 0.874262
vt 0.997493 0.874262
vt 0.630764 0.996424
vt 0.508521 0.996424
vt 0.753007 0.996424
vt 0.875250 0.996424
vt 0.997493 0.996424
f 1/1 2/2 7/3 6/4
f 2/2 3/5 8/6 7/3
f 3/5 4/7 9/8 8/6
f 4/7 5/9 10/10 9/8
f 6/4 7/3 12/11 11/12
f 7/3 8/6 13/13 12/11
f 8/6 9/8 14/14 13/13
f 9/8 10/10 15/15 14/14
f 11/12 12/11 17/16 16/17
f 12/11 13/13 18/18 17/16
f 13/13 14/14 19/19 18/18
f 14/14 15/15 20/20 19/19
f 16/17 17/16 22/21 21/22
f 17/16 18/18 23/23 22/21
f 18/18 19/19 24/24 23/23
f 19/19 20/20 25/25 24/24
