# This file uses centimeters as units for non-parametric coordinates.

v -0.125509 3.958883 0.000000
v -0.074316 3.958883 -0.079055
v 0.074316 3.958883 -0.079055
v 0.125517 3.958883 0.000000
v -0.125509 5.096938 0.000000
v -0.074316 5.096938 -0.079055
v 0.074316 5.096938 -0.079055
v 0.125517 5.096938 0.000000
v 0.000002 3.958883 0.000000
v -0.148634 4.338234 0.000000
v -0.074316 4.338234 -0.114759
v 0.074316 4.338234 -0.114759
v 0.148638 4.338234 0.000000
v -0.148634 4.717586 0.000000
v -0.074316 4.717586 -0.114759
v 0.074316 4.717586 -0.114759
v 0.148638 4.717586 0.000000
v 0.000002 5.147360 0.000000
v -0.190786 5.096938 0.000000
v -0.190786 5.147360 0.000000
v -0.106146 5.096938 -0.130705
v -0.106146 5.147360 -0.130705
v 0.106146 5.096938 -0.130705
v 0.106146 5.147360 -0.130705
v 0.190794 5.096938 0.000000
v 0.190794 5.147360 0.000000
v -0.789537 3.724675 -0.064149
v 0.789537 3.724675 -0.064149
v -0.789537 3.856077 -0.064149
v 0.789537 3.856077 -0.064149
v -0.789537 3.856077 0.000000
v 0.789537 3.856077 0.000000
v 0.789537 3.724675 0.000000
v -0.789537 3.724675 0.000000
v 0.000002 3.941293 0.000000
v 0.000002 3.941293 -0.064149
v 0.000002 3.639459 -0.064149
v 0.000002 3.639459 0.000000
v -0.596300 3.898685 0.000000
v -0.596300 3.898685 -0.064149
v -0.596300 3.682067 -0.064149
v -0.596300 3.682067 0.000000
v 0.596300 3.682067 0.000000
v 0.596300 3.682067 -0.064149
v 0.596300 3.898685 -0.064149
v 0.596300 3.898685 0.000000
v -0.789537 3.934256 -0.064149
v -0.596300 4.027564 -0.064149
v -0.596300 4.027564 0.000000
v -0.789537 3.934256 0.000000
v -0.596300 3.553189 0.000000
v -0.789537 3.646496 0.000000
v -0.596300 3.553189 -0.064149
v -0.789537 3.646496 -0.064149
v 0.596300 3.553189 0.000000
v 0.596300 3.553189 -0.064149
v 0.789537 3.646496 0.000000
v 0.789537 3.646496 -0.064149
v 0.596300 4.027564 -0.064149
v 0.596300 4.027564 0.000000
v 0.789537 3.934256 -0.064149
v 0.789537 3.934256 0.000000
v 0.146669 4.009727 -0.122897
v -0.146669 4.009727 -0.122897
v -0.293337 3.755689 -0.122897
v -0.146669 3.501651 -0.122897
v 0.146669 3.501651 -0.122897
v 0.293337 3.755689 -0.122897
v 0.000002 3.755689 -0.122897
v 0.146669 4.009727 0.000000
v -0.146669 4.009727 0.000000
v -0.293337 3.755689 0.000000
v -0.146669 3.501651 0.000000
v 0.146669 3.501651 0.000000
v 0.293337 3.755689 0.000000
v -0.341143 1.057444 -0.087299
v 0.341143 1.057444 -0.087299
v -0.174681 3.675320 -0.087299
v 0.174681 3.675320 -0.087299
v 0.000002 0.309789 -0.087299
v 0.000002 3.675320 -0.087299
v -0.214125 3.675320 0.000000
v 0.214121 3.675320 0.000000
v 0.418169 0.907002 0.000000
v 0.000002 -0.000000 0.000000
v -0.418169 0.907002 0.000000
v -0.125509 3.958883 0.000000
v -0.074316 3.958883 0.079055
v 0.074316 3.958883 0.079055
v 0.125517 3.958883 0.000000
v -0.125509 5.096938 0.000000
v -0.074316 5.096938 0.079055
v 0.074316 5.096938 0.079055
v 0.125517 5.096938 0.000000
v 0.000002 3.958883 0.000000
v -0.148634 4.338234 0.000000
v -0.074316 4.338234 0.114759
v 0.074316 4.338234 0.114759
v 0.148638 4.338234 0.000000
v -0.148634 4.717586 0.000000
v -0.074316 4.717586 0.114759
v 0.074316 4.717586 0.114759
v 0.148638 4.717586 0.000000
v 0.000002 5.147360 0.000000
v -0.190786 5.096938 0.000000
v -0.190786 5.147360 0.000000
v -0.106146 5.096938 0.130705
v -0.106146 5.147360 0.130705
v 0.106146 5.096938 0.130705
v 0.106146 5.147360 0.130705
v 0.190794 5.096938 0.000000
v 0.190794 5.147360 0.000000
v -0.789537 3.724675 0.064149
v 0.789537 3.724675 0.064149
v -0.789537 3.856077 0.064149
v 0.789537 3.856077 0.064149
v -0.789537 3.856077 0.000000
v 0.789537 3.856077 0.000000
v 0.789537 3.724675 0.000000
v -0.789537 3.724675 0.000000
v 0.000002 3.941293 0.000000
v 0.000002 3.941293 0.064149
v 0.000002 3.639459 0.064149
v 0.000002 3.639459 0.000000
v -0.596300 3.898685 0.000000
v -0.596300 3.898685 0.064149
v -0.596300 3.682067 0.064149
v -0.596300 3.682067 0.000000
v 0.596300 3.682067 0.000000
v 0.596300 3.682067 0.064149
v 0.596300 3.898685 0.064149
v 0.596300 3.898685 0.000000
v -0.789537 3.934256 0.064149
v -0.596300 4.027564 0.064149
v -0.596300 4.027564 0.000000
v -0.789537 3.934256 0.000000
v -0.596300 3.553189 0.000000
v -0.789537 3.646496 0.000000
v -0.596300 3.553189 0.064149
v -0.789537 3.646496 0.064149
v 0.596300 3.553189 0.000000
v 0.596300 3.553189 0.064149
v 0.789537 3.646496 0.000000
v 0.789537 3.646496 0.064149
v 0.596300 4.027564 0.064149
v 0.596300 4.027564 0.000000
v 0.789537 3.934256 0.064149
v 0.789537 3.934256 0.000000
v 0.146669 4.009727 0.122897
v -0.146669 4.009727 0.122897
v -0.293337 3.755689 0.122897
v -0.146669 3.501651 0.122897
v 0.146669 3.501651 0.122897
v 0.293337 3.755689 0.122897
v 0.000002 3.755689 0.122897
v 0.146669 4.009727 0.000000
v -0.146669 4.009727 0.000000
v -0.293337 3.755689 0.000000
v -0.146669 3.501651 0.000000
v 0.146669 3.501651 0.000000
v 0.293337 3.755689 0.000000
v -0.341143 1.057444 0.087299
v 0.341143 1.057444 0.087299
v -0.174681 3.675320 0.087299
v 0.174681 3.675320 0.087299
v 0.000002 0.309789 0.087299
v 0.000002 3.675320 0.087299
v -0.214125 3.675320 0.000000
v 0.214121 3.675320 0.000000
v 0.418169 0.907002 0.000000
v 0.000002 -0.000000 0.000000
v -0.418169 0.907002 0.000000
vt 0.726539 0.218519
vt 0.754168 0.218519
vt 0.746897 0.482462
vt 0.745616 0.530768
vt 0.793812 0.218519
vt 0.739696 0.408512
vt 0.821440 0.218519
vt 0.821440 0.319118
vt 0.754168 0.015947
vt 0.726539 0.015948
vt 0.793812 0.015947
vt 0.821440 0.015948
vt 0.812880 0.438938
vt 0.808316 0.549706
vt 0.792564 0.482111
vt 0.787357 0.402858
vt 0.796994 0.335749
vt 0.754168 0.116546
vt 0.726539 0.116546
vt 0.793812 0.116547
vt 0.821440 0.116546
vt 0.777896 0.551263
vt 0.769713 0.485414
vt 0.764090 0.403804
vt 0.766567 0.334816
vt 0.793812 0.319118
vt 0.735808 0.358453
vt 0.754168 0.319118
vt 0.726539 0.319118
vt 0.908429 0.844540
vt 0.963838 0.845113
vt 0.951276 0.957162
vt 0.915614 0.956348
vt 0.896460 0.844393
vt 0.905329 0.951907
vt 0.940781 0.976075
vt 0.941793 0.984196
vt 0.923058 0.983477
vt 0.924907 0.975536
vt 0.975796 0.845179
vt 0.963444 0.953824
vt 0.930884 0.707596
vt 0.949138 0.708320
vt 0.947358 0.716010
vt 0.931845 0.715435
vt 0.909462 0.739939
vt 0.921436 0.733661
vt 0.955827 0.738242
vt 0.967639 0.742783
vt 0.892129 0.719178
vt 0.882374 0.727315
vt 0.873427 0.729083
vt 0.888323 0.711184
vt 0.979747 0.710498
vt 0.990332 0.735048
vt 0.982412 0.734155
vt 0.976913 0.717130
vt 0.981471 0.968127
vt 0.992125 0.965650
vt 0.989027 0.981779
vt 0.982027 0.978010
vt 0.871979 0.961862
vt 0.879406 0.964640
vt 0.888622 0.979392
vt 0.885813 0.981661
vt 0.481394 0.369155
vt 0.424228 0.324423
vt 0.445383 0.315692
vt 0.484794 0.346514
vt 0.435199 0.251600
vt 0.452931 0.265497
vt 0.503275 0.223469
vt 0.499878 0.246082
vt 0.560379 0.268150
vt 0.539242 0.276899
vt 0.549469 0.341013
vt 0.531706 0.327137
vt 0.492321 0.296306
vt 0.580486 0.475580
vt 0.611428 0.009357
vt 0.642664 0.009450
vt 0.640869 0.608314
vt 0.673900 0.009544
vt 0.702046 0.475945
vt 0.559494 0.502735
vt 0.594312 0.008662
vt 0.640689 0.668103
vt 0.722875 0.503225
vt 0.691020 0.008952
vt 0.726539 0.218519
vt 0.754168 0.218519
vt 0.754168 0.319118
vt 0.726539 0.319118
vt 0.793812 0.218519
vt 0.793812 0.319118
vt 0.821440 0.218519
vt 0.821440 0.319118
vt 0.812880 0.438938
vt 0.808316 0.549706
vt 0.792564 0.482111
vt 0.787357 0.402858
vt 0.796994 0.335749
vt 0.726539 0.015948
vt 0.754168 0.015947
vt 0.754168 0.116546
vt 0.726539 0.116546
vt 0.793812 0.015947
vt 0.793812 0.116547
vt 0.821440 0.015948
vt 0.821440 0.116546
vt 0.777896 0.551263
vt 0.769713 0.485414
vt 0.764090 0.403804
vt 0.766567 0.334816
vt 0.745616 0.530768
vt 0.746897 0.482462
vt 0.739696 0.408512
vt 0.735808 0.358453
vt 0.908429 0.844540
vt 0.963838 0.845113
vt 0.951276 0.957162
vt 0.915614 0.956348
vt 0.896460 0.844393
vt 0.905329 0.951907
vt 0.940781 0.976075
vt 0.941793 0.984196
vt 0.923058 0.983477
vt 0.924907 0.975536
vt 0.975796 0.845179
vt 0.963444 0.953824
vt 0.930884 0.707596
vt 0.949138 0.708320
vt 0.947358 0.716010
vt 0.931845 0.715435
vt 0.909462 0.739939
vt 0.921436 0.733661
vt 0.955827 0.738242
vt 0.967639 0.742783
vt 0.892129 0.719178
vt 0.882374 0.727315
vt 0.873427 0.729083
vt 0.888323 0.711184
vt 0.979747 0.710498
vt 0.990332 0.735048
vt 0.982412 0.734155
vt 0.976913 0.717130
vt 0.981471 0.968127
vt 0.992125 0.965650
vt 0.989027 0.981779
vt 0.982027 0.978010
vt 0.871979 0.961862
vt 0.879406 0.964640
vt 0.888622 0.979392
vt 0.885813 0.981661
vt 0.481394 0.369155
vt 0.424228 0.324423
vt 0.445383 0.315692
vt 0.484794 0.346514
vt 0.435199 0.251600
vt 0.452931 0.265497
vt 0.503275 0.223469
vt 0.499878 0.246082
vt 0.560379 0.268150
vt 0.539242 0.276899
vt 0.549469 0.341013
vt 0.531706 0.327137
vt 0.492321 0.296306
vt 0.580486 0.475580
vt 0.611428 0.009357
vt 0.642664 0.009450
vt 0.640869 0.608314
vt 0.673900 0.009544
vt 0.702046 0.475945
vt 0.559494 0.502735
vt 0.594312 0.008662
vt 0.640689 0.668103
vt 0.722875 0.503225
vt 0.691020 0.008952
f 14/1 5/29 6/28 15/2
f 15/2 6/28 7/26 16/5
f 16/5 7/26 8/8 17/7
f 2 9 1
f 3 9 2
f 4 9 3
f 18/13 22/15 20/14
f 18/13 24/16 22/15
f 18/13 26/17 24/16
f 1/10 10/19 11/18 2/9
f 2/9 11/18 12/20 3/11
f 3/11 12/20 13/21 4/12
f 10/19 14/1 15/2 11/18
f 11/18 15/2 16/5 12/20
f 12/20 16/5 17/7 13/21
f 19/22 20/14 22/15 21/23
f 21/23 22/15 24/16 23/24
f 23/24 24/16 26/17 25/25
f 5/4 19/22 21/23 6/3
f 6/3 21/23 23/24 7/6
f 7/6 23/24 25/25 8/27
f 36/30 45/33 44/32 37/31
f 35/34 46/35 45/33 36/30
f 28/36 30/39 32/38 33/37
f 37/31 44/32 43/41 38/40
f 31/42 29/45 27/44 34/43
f 39/46 35/34 36/30 40/47
f 40/47 36/30 37/31 41/48
f 41/48 37/31 38/40 42/49
f 47/50 50/53 49/52 48/51
f 27/44 29/45 40/47 41/48
f 52/54 54/57 53/56 51/55
f 56/58 58/61 57/60 55/59
f 45/33 30/39 28/36 44/32
f 60/62 62/65 61/64 59/63
f 29/45 47/50 48/51 40/47
f 40/47 48/51 49/52 39/46
f 31/42 50/53 47/50 29/45
f 42/49 51/55 53/56 41/48
f 41/48 53/56 54/57 27/44
f 27/44 54/57 52/54 34/43
f 44/32 56/58 55/59 43/41
f 33/37 57/60 58/61 28/36
f 28/36 58/61 56/58 44/32
f 46/35 60/62 59/63 45/33
f 45/33 59/63 61/64 30/39
f 30/39 61/64 62/65 32/38
f 70/66 63/69 64/68 71/67
f 71/67 64/68 65/71 72/70
f 72/70 65/71 66/73 73/72
f 73/72 66/73 67/75 74/74
f 74/74 67/75 68/77 75/76
f 75/76 68/77 63/69 70/66
f 63/69 69/78 64/68
f 64/68 69/78 65/71
f 65/71 69/78 66/73
f 66/73 69/78 67/75
f 67/75 69/78 68/77
f 68/77 69/78 63/69
f 77/79 80/82 81/81 79/80
f 81/81 80/82 76/84 78/83
f 84/85 77/79 79/80 83/86
f 80/82 77/79 84/85 85/87
f 86/88 76/84 80/82 85/87
f 76/84 86/88 82/89 78/83
f 100/90 101/91 92/92 91/93
f 101/91 102/94 93/95 92/92
f 102/94 103/96 94/97 93/95
f 88 87 95
f 89 88 95
f 90 89 95
f 104/98 106/99 108/100
f 104/98 108/100 110/101
f 104/98 110/101 112/102
f 87/103 88/104 97/105 96/106
f 88/104 89/107 98/108 97/105
f 89/107 90/109 99/110 98/108
f 96/106 97/105 101/91 100/90
f 97/105 98/108 102/94 101/91
f 98/108 99/110 103/96 102/94
f 105/111 107/112 108/100 106/99
f 107/112 109/113 110/101 108/100
f 109/113 111/114 112/102 110/101
f 91/115 92/116 107/112 105/111
f 92/116 93/117 109/113 107/112
f 93/117 94/118 111/114 109/113
f 122/119 123/120 130/121 131/122
f 121/123 122/119 131/122 132/124
f 114/125 119/126 118/127 116/128
f 123/120 124/129 129/130 130/121
f 117/131 120/132 113/133 115/134
f 125/135 126/136 122/119 121/123
f 126/136 127/137 123/120 122/119
f 127/137 128/138 124/129 123/120
f 133/139 134/140 135/141 136/142
f 113/133 127/137 126/136 115/134
f 138/143 137/144 139/145 140/146
f 142/147 141/148 143/149 144/150
f 131/122 130/121 114/125 116/128
f 146/151 145/152 147/153 148/154
f 115/134 126/136 134/140 133/139
f 126/136 125/135 135/141 134/140
f 117/131 115/134 133/139 136/142
f 128/138 127/137 139/145 137/144
f 127/137 113/133 140/146 139/145
f 113/133 120/132 138/143 140/146
f 130/121 129/130 141/148 142/147
f 119/126 114/125 144/150 143/149
f 114/125 130/121 142/147 144/150
f 132/124 131/122 145/152 146/151
f 131/122 116/128 147/153 145/152
f 116/128 118/127 148/154 147/153
f 156/155 157/156 150/157 149/158
f 157/156 158/159 151/160 150/157
f 158/159 159/161 152/162 151/160
f 159/161 160/163 153/164 152/162
f 160/163 161/165 154/166 153/164
f 161/165 156/155 149/158 154/166
f 149/158 150/157 155/167
f 150/157 151/160 155/167
f 151/160 152/162 155/167
f 152/162 153/164 155/167
f 153/164 154/166 155/167
f 154/166 149/158 155/167
f 163/168 165/169 167/170 166/171
f 167/170 164/172 162/173 166/171
f 170/174 169/175 165/169 163/168
f 166/171 171/176 170/174 163/168
f 172/177 171/176 166/171 162/173
f 162/173 164/172 168/178 172/177
