# This file uses centimeters as units for non-parametric coordinates.

v 0.196449 19.715164 19.715149
v 0.196449 -19.715164 19.715149
v 0.196449 19.715164 -19.715149
v 0.196449 -19.715164 -19.715149
v -0.196457 19.715164 19.715149
v -0.196457 -19.715164 19.715149
v -0.196457 19.715164 -19.715149
v -0.196457 -19.715164 -19.715149
vt 0.500951 0.531474
vt 0.959049 0.531474
vt 0.500951 0.984149
vt 0.959049 0.984149
vt 0.500951 0.531474
vt 0.959049 0.531474
vt 0.959049 0.984149
vt 0.500951 0.984149
f 1/1 2/2 4/4 3/3
f 5/5 7/8 8/7 6/6
